<?xml version="1.0" encoding="utf-8"?>
<!-- Generator: Adobe Illustrator 21.0.2, SVG Export Plug-In . SVG Version: 6.00 Build 0)  -->
<svg version="1.1" id="Livello_1" xmlns="http://www.w3.org/2000/svg" xmlns:xlink="http://www.w3.org/1999/xlink" x="0px" y="0px"
	 viewBox="0 0 1121 993" style="enable-background:new 0 0 1121 993;" xml:space="preserve">
<style type="text/css">
	.st0{fill:#FFFFFF;}
</style>
<path class="st0" d="M873.4,455.1c16.3,16.3,24.4,36,24.4,59.3c0,23.2-8.1,43-24.4,59.3L517.7,929.4c-16.3,16.3-36,24.4-59.3,24.4
	s-43-8.1-59.3-24.4L29.6,559.8c-16.3-16.3-24.4-36-24.4-59.3V144.8c0-23.2,8.1-43,24.4-59.3s36-24.4,59.3-24.4h355.7
	c23.2,0,43,8.1,59.3,24.4L873.4,455.1z M200.4,340.1c23.2,0,43-8.1,59.3-24.4c16.3-16.3,24.4-36,24.4-59.3s-8.1-43-24.4-59.3
	s-36-24.4-59.3-24.4s-43,8.1-59.3,24.4s-24.4,36-24.4,59.3s8.1,43,24.4,59.3C157.4,331.9,177.2,340.1,200.4,340.1z M1096.6,573.7
	c16.3-16.3,24.4-36,24.4-59.3c0-23.2-8.1-43-24.4-59.3L727,85.5c-16.3-16.3-36-24.4-59.3-24.4h-85.4l343.5,341.7
	c30.2,31.4,45.3,68.6,45.3,111.6c0,43-15.1,80.2-45.3,111.6L622.4,929.4c16.3,16.3,36,24.4,59.3,24.4c23.2,0,43-8.1,59.3-24.4
	L1096.6,573.7z"/>
</svg>
