<?xml version="1.0" encoding="utf-8"?>
<!-- Generator: Adobe Illustrator 21.0.2, SVG Export Plug-In . SVG Version: 6.00 Build 0)  -->
<svg version="1.1" id="Livello_1" xmlns="http://www.w3.org/2000/svg" xmlns:xlink="http://www.w3.org/1999/xlink" x="0px" y="0px"
	 viewBox="0 0 1121 993" style="enable-background:new 0 0 1121 993;" xml:space="preserve">
<style type="text/css">
	.st0{fill:#FFFFFF;}
	.st1{fill:#1193B2;}
	.st2{fill:#E6E6E6;}
</style>
<g>
	<path class="st0" d="M295.9,224.3c0-5.6-4.5-10.2-10.2-10.2s-10.2,4.5-10.2,10.2v1.8h-8.9v-1.8l0,0c0-5.6-4.5-10.2-10.2-10.2
		c-5.7,0-10.2,4.5-10.2,10.2v1.8H246h-8.9v-1.8c0-5.6-4.5-10.2-10.2-10.2c-5.6,0-10.2,4.5-10.2,10.2v1.8h-9v-1.8
		c0-5.6-4.5-10.2-10.2-10.2s-10.2,4.5-10.2,10.2v1.8h-8.9v-1.8c0-5.6-4.5-10.2-10.2-10.2s-10.2,4.5-10.2,10.2v3.9l0,0
		c-8,3.7-13.2,11.7-13.2,20.6c0,1.9,0.8,5.7,0.8,5.7l0.1,0.1c-1.2,6.3,0.3,12.8,4.2,17.9c-23.6,0.5-40.3,0.6-46.1,0.6
		C72,273.1,39,294.8,39,294.8h1.5c-23.9,13.4-38.6,38.6-38.5,66v466.6c0,0.1,0,0.3,0,0.4c0.1,41.6,34,75.3,75.6,75.2h963.8h0.3
		c41.7-0.1,75.4-33.9,75.3-75.6V360.8c0-21-8.7-41-24-55.3c-19.6-24.5-74.9-41.6-141.7-60.9c-44.8-12.9-52.1-48.2-53.4-69.2
		c0.2-2.3,0.4-4.6,0.4-6.9c0-36.9-29.9-66.7-66.8-66.7h-33c-1.8,5.6-7,9.3-12.9,9.3h-14.7c-2.2,0-4.3-0.5-6.2-1.5
		c-3.1-1.6-5.6-4.4-6.7-7.8h-97c-1.8,5.6-7,9.3-12.9,9.3h-14.8c-5.9,0-11.1-3.8-12.9-9.3h-32c-33.7-0.1-62.2,25-66.3,58.5l-9,31.8
		c-5,32.9-70,52.4-146.9,64c0,0.1-0.1,0.3-0.2,0.4c0.9-2.4,1.4-5,1.4-7.7c0-1.4-0.1-2.8-0.4-4.2l0,0c0.6-9.1-4.4-17.7-12.7-21.7
		c-0.5-3.9-3.3-7.2-7.1-8.3c-5.4-1.6-11,1.4-12.6,6.8l-9.6,0.9c-1-4.6-4.9-7.9-9.6-8c-5.6-0.2-10.3,4.2-10.5,9.8l-9,0.8L295.9,224.3
		z M343.6,453.5c0,1.4-0.1,2.8-0.2,4.2c0.1,0.9,0.1,1.8,0.1,2.8v357.8c0,0.1,0,0.2,0,0.2c-0.1,29.3-23.9,53-53.2,53h-94.4l0,0
		c-29.3-0.1-53-23.9-52.9-53.2V539.1l-2-4.3c-10.9-22.8-33.2-33.6-43.9-37.6c-20.3-4.8-34.6-22.9-34.6-43.8V447c0-0.1,0-0.1,0-0.2
		l0,0c0.1-24.8,20.2-44.8,45-44.8h191.4l0,0c24.8,0.1,44.8,20.2,44.8,45L343.6,453.5L343.6,453.5z M344.1,332.2
		c0,10.1-8.2,18.3-18.3,18.3H182.4c-10.1,0-18.3-8.2-18.3-18.3c0-10.1,8.2-18.3,18.3-18.3h143.4
		C335.9,313.9,344.1,322.1,344.1,332.2L344.1,332.2z M344.8,271.4L344.8,271.4L344.8,271.4L344.8,271.4z M616,125.9h187.9
		c28.5,0,51.6,23.1,51.6,51.6s-23.1,51.6-51.6,51.6H616c-28.5,0-51.6-23.1-51.6-51.6S587.5,125.9,616,125.9z M701.5,900.4
		c-175,0-316.9-141.9-316.9-316.9s141.9-317,316.9-316.9s317,141.9,317,316.9S876.5,900.4,701.5,900.4z M1056,340.5
		c0,28.3-23,51.3-51.3,51.2c-28.3,0-51.3-23-51.2-51.3c0-28.3,23-51.3,51.3-51.2C1033.1,289.2,1056,312.2,1056,340.5L1056,340.5z"/>
	<path class="st1" d="M158.4,228.2L158.4,228.2C158.5,228.2,158.5,228.2,158.4,228.2L158.4,228.2z"/>
	<g id="XMLID_1_">
		<g>
			<path class="st2" d="M1004.7,297.1c24,0,43.4,19.4,43.4,43.4s-19.4,43.4-43.4,43.4s-43.4-19.4-43.4-43.4
				S980.7,297.1,1004.7,297.1z M1004.7,364.4c13.2,0,23.9-10.7,23.9-23.9c0-13.2-10.7-23.9-23.9-23.9s-23.9,10.7-23.9,23.9
				C980.8,353.7,991.5,364.4,1004.7,364.4L1004.7,364.4z"/>
			<path class="st2" d="M799,97.6L799,97.6c0,1.4-0.2,2.9-0.6,4.2l0,0c-1.8,5.6-7,9.3-12.9,9.3h-14.7c-2.2,0-4.3-0.5-6.2-1.5
				c-3.1-1.6-5.5-4.4-6.7-7.8l0,0l0,0c-0.4-1.4-0.7-2.8-0.7-4.3c0-7.5,6.1-13.5,13.6-13.5h14.7C793,84,799,90.1,799,97.6z"/>
			<path class="st2" d="M661.6,97.6L661.6,97.6c0.1,1.4-0.2,2.9-0.6,4.2c-1.8,5.6-7,9.3-12.9,9.3h-14.7c-5.9,0-11-3.8-12.9-9.3
				c-0.5-1.4-0.7-2.8-0.7-4.3c0-7.5,6.1-13.5,13.5-13.5H648C655.6,84,661.6,90.1,661.6,97.6z"/>
		</g>
	</g>
	<path class="st0" d="M701.5,336.3L701.5,336.3C565,336.3,454.3,447,454.3,583.5S565,830.7,701.5,830.7s247.3-110.6,247.3-247.2
		S838.1,336.3,701.5,336.3z"/>
</g>
<path class="st2" d="M702,264c-175.6,0-318,143.3-318,320s142.4,320,318,320s318-143.3,318-320S877.6,264,702,264z M702,854.3
	c-148.3,0-268.6-121-268.6-270.3S553.7,313.7,702,313.7l0,0c148.3,0,268.6,121,268.6,270.3S850.3,854.3,702,854.3L702,854.3z"/>
<ellipse class="st2" cx="703" cy="583.5" rx="190" ry="191.5"/>
</svg>
